real        32.91
user        31.69
sys          0.81
           187211776  maximum resident set size
                   0  average shared memory size
                   0  average unshared data size
                   0  average unshared stack size
               50431  page reclaims
                 321  page faults
                   0  swaps
                   0  block input operations
                   0  block output operations
                   0  messages sent
                   0  messages received
                   0  signals received
                2547  voluntary context switches
               14448  involuntary context switches
        198961685232  instructions retired
        100380232379  cycles elapsed
           163950592  peak memory footprint
